<?xml version="1.0" encoding="utf-8"?>
<!-- Generator: Adobe Illustrator 19.2.1, SVG Export Plug-In . SVG Version: 6.00 Build 0)  -->
<svg version="1.1" id="Layer_1" xmlns="http://www.w3.org/2000/svg" xmlns:xlink="http://www.w3.org/1999/xlink" x="0px" y="0px"
	 viewBox="0 0 328.6 112.7" style="enable-background:new 0 0 328.6 112.7;" xml:space="preserve">
<style type="text/css">
	.st0{enable-background:new    ;}
	.st1{fill:#818181;}
</style>
<title>Vector Smart Object1</title>
<g class="st0">
	<path class="st1" d="M129.3,21.1c0-1.2-0.2-2.1-0.9-2.8l-3-2.9c-0.2-0.3-0.7-0.6-0.7-0.9s0.2-0.6,0.6-0.6h14.9c7.7,0,13,4,13,19.2
		c0,12.7-4.1,20.4-13,20.4h-3.4v27.3c0,1.2,0.1,2.2,0.9,2.8l3.7,2.9c0.3,0.3,0.7,0.6,0.7,0.9c0,0.3-0.2,0.6-0.6,0.6h-16.2
		c-0.4,0-0.6-0.3-0.6-0.6c0-0.3,0.5-0.5,0.7-0.9l3-2.9c0.7-0.7,0.9-1.6,0.9-2.8V21.1z M136.9,48.6h2.9c4.1,0,5.4-4.5,5.4-15.5
		c0-11-1.3-14.2-5.4-14.2h-2.9V48.6z"/>
</g>
<g class="st0">
	<path class="st1" d="M159.2,21.1c0-1.2-0.2-2.2-0.8-2.8l-3.1-2.9c-0.3-0.3-0.5-0.6-0.5-0.9s0.2-0.6,0.6-0.6h15.1
		c0.4,0,0.6,0.3,0.6,0.6s-0.2,0.6-0.5,0.9l-3.1,2.9c-0.5,0.6-0.8,1.6-0.8,2.8v53.7c0,4.3,0.4,8.3,5,8.3c3.7,0,4.6-3.9,4.6-8.3V21.1
		c0-1.2-0.2-2.2-0.8-2.8l-3.1-2.9c-0.3-0.3-0.5-0.6-0.5-0.9s0.2-0.6,0.6-0.6h13.5c0.4,0,0.6,0.3,0.6,0.6s-0.2,0.6-0.5,0.9l-3.1,2.9
		c-0.5,0.6-0.8,1.6-0.8,2.8v56.3c0,6.1-4.7,10.7-11.5,10.7c-7.8,0-11.8-4.5-11.8-10.7V21.1z"/>
	<path class="st1" d="M192.9,21.1c0-1.2-0.2-2.1-0.9-2.8l-3-2.9c-0.2-0.3-0.7-0.6-0.7-0.9s0.2-0.6,0.6-0.6h12.3
		c10.3,0,15.6,6.3,15.6,18.3c0,11.4-3.5,15.2-7.3,17.6c3.9,2,7.5,6.1,7.5,17.1c0,14.3-4.5,21.1-12.6,21.1H189
		c-0.4,0-0.6-0.3-0.6-0.6c0-0.3,0.5-0.5,0.7-0.9l3-2.9c0.7-0.7,0.9-1.6,0.9-2.8V21.1z M200.5,48h1.5c4.8,0,6.9-3.8,6.9-15.7
		c0-10.1-2.1-13.3-6.9-13.3h-1.5V48z M200.5,83.1h3.1c4.3,0,5.3-3.6,5.3-16.9c0-9.7-2.1-13.3-6.9-13.3h-1.5V83.1z"/>
	<path class="st1" d="M225.6,21.1c0-1.2-0.2-2.1-0.9-2.8l-3-2.9c-0.2-0.3-0.7-0.6-0.7-0.9s0.2-0.6,0.6-0.6h15.5
		c0.4,0,0.6,0.3,0.6,0.6s-0.5,0.6-0.7,0.9l-3,2.9c-0.7,0.7-0.9,1.6-0.9,2.8v62h3.9c1.2,0,2.2-0.3,2.6-1.5l6.1-19.1
		c0.2-0.4,0.2-0.7,0.6-0.7c0.3,0,0.5,0.3,0.5,0.7v24.2c0,0.9-0.3,1.4-1.1,1.4h-24.2c-0.4,0-0.6-0.3-0.6-0.6c0-0.3,0.5-0.5,0.7-0.9
		l3-2.9c0.7-0.7,0.9-1.6,0.9-2.8V21.1z"/>
	<path class="st1" d="M255,21.1c0-1.2-0.2-2.1-0.9-2.8l-3-2.9c-0.2-0.3-0.7-0.6-0.7-0.9s0.2-0.6,0.6-0.6h15.5c0.4,0,0.6,0.3,0.6,0.6
		s-0.5,0.6-0.7,0.9l-3,2.9c-0.7,0.7-0.9,1.6-0.9,2.8v59.8c0,1.2,0.2,2.1,0.9,2.8l3,2.9c0.2,0.3,0.7,0.6,0.7,0.9
		c0,0.3-0.2,0.6-0.6,0.6h-15.5c-0.4,0-0.6-0.3-0.6-0.6c0-0.3,0.5-0.6,0.7-0.9l3-2.9c0.7-0.7,0.9-1.6,0.9-2.8V21.1z"/>
	<path class="st1" d="M273.1,21.1c0-1.2-0.2-2.2-0.8-2.8l-3.1-2.9c-0.3-0.3-0.5-0.6-0.5-0.9s0.2-0.6,0.6-0.6h15.1
		c0.4,0,0.6,0.3,0.6,0.6s-0.2,0.6-0.5,0.9l-3.1,2.9c-0.5,0.6-0.8,1.6-0.8,2.8v53.7c0,4.3,0.4,8.3,5,8.3c3.7,0,4.6-3.9,4.6-8.3V21.1
		c0-1.2-0.2-2.2-0.8-2.8l-3.1-2.9c-0.3-0.3-0.5-0.6-0.5-0.9s0.2-0.6,0.6-0.6h13.5c0.4,0,0.6,0.3,0.6,0.6s-0.2,0.6-0.5,0.9l-3.1,2.9
		c-0.5,0.6-0.8,1.6-0.8,2.8v56.3c0,6.1-4.7,10.7-11.5,10.7c-7.8,0-11.8-4.5-11.8-10.7V21.1z"/>
	<path class="st1" d="M324.6,39.6c0,0.3-0.2,0.5-0.6,0.5c-0.3,0-0.5-0.3-0.6-0.7c-1.6-8-6.3-20.4-10.9-20.4c-2.5,0-2.7,2.1-2.7,4.6
		c0,4.8,1.3,9.7,8.6,25.2c6.9,14.6,7.7,17.9,7.7,25.7c0,10.5-5.4,13.6-9.1,13.6c-2.7,0-4.3-1.1-5.5-1.9c-1.1-0.7-1.7-1-2-1
		c-0.4,0-1.2,0.7-3.2,2.2c-0.4,0.3-0.8,0.7-1.2,0.7c-0.4,0-0.5-0.2-0.5-0.5V62.7c0-0.3,0.1-0.7,0.5-0.7c0.3,0,0.5,0.4,0.6,0.7
		c1.8,7.9,4.8,20.4,10.7,20.4c1.9,0,2.9-2.1,2.9-5.1c0-6.6-3-13.8-8.6-25.7c-5.3-11.3-7.3-18.8-7.3-26c0-9.4,4-12.3,9.1-12.3
		c1.9,0,4,1.1,5.5,2.3c0.5,0.3,1.1,0.6,1.5,0.6s1.4-0.7,2.3-1.6c0.9-0.8,1.5-1.3,2.1-1.3c0.5,0,0.7,0.5,0.7,1.1V39.6z"/>
</g>
<path class="st1" d="M55.1,0.4c-14.5,0-21.6,5.1-21.6,5.1c12.6-0.3,19.5,5,21.6,13.3c2.2-8.3,9-13.5,21.6-13.3
	C76.7,5.5,69.6,0.4,55.1,0.4z"/>
<path class="st1" d="M55.1,26.3c0,0-2.8-18.7-18.3-18.3C18.2,8.4,9.2,7.7,9.7,0c-0.7,6.5,1.4,11.8,20.1,11
	C44.4,10.5,51.6,17.6,55.1,26.3z"/>
<path class="st1" d="M55.1,26.3c0,0,2.8-18.7,18.3-18.3c18.7,0.5,27.6-0.2,27.1-7.9c0.7,6.5-1.4,11.8-20.1,11
	C65.9,10.5,58.7,17.6,55.1,26.3z"/>
<path class="st1" d="M55.1,28.2c0.3-0.3-6.9-14.6-25.2-14.1c-15.2,0.5-28.7-2.3-29.8,1.4s5,7.7,5,7.7S3.8,45,16.7,51.8
	s25.3,1.8,27.4-2.7s7.4-14.2,11-14.2C55.1,29.6,55.1,28.2,55.1,28.2z M35,49.8c-8.3,1.7-21.9-0.7-24.4-13.8s8.6-16,12.7-16.3
	c14.8-1.2,21.6,5.4,22.3,9.9S43.3,48,35,49.8z"/>
<path class="st1" d="M55.1,34.9c3.6,0,8.9,9.6,11,14.2s14.5,9.5,27.4,2.7s11.6-28.6,11.6-28.6s6-4.1,5-7.7s-14.5-1.7-29.8-1.9
	c-19-0.3-25.5,14.4-25.2,14.6C55.1,28.2,55.1,29.6,55.1,34.9z M64.7,29.6c0.8-4.6,8.1-10.2,21.3-9.4c5,0.3,16.2,2.6,13.7,15.7
	S83.5,51.5,75.3,49.8S64,34.2,64.7,29.6z"/>
<path class="st1" d="M8.9,46.4c0,0-3.4,31.6,23.4,38.4c-6-3.5-7.8-12-7.8-12s4.9,5.1,9.9,6.8c-4.9-7.4-4.5-8.2-6.8-15.5
	S10.5,59.7,8.9,46.4z"/>
<path class="st1" d="M101.5,46.4c0,0,3.4,31.6-23.4,38.4c6-3.5,7.8-12,7.8-12s-4.9,5.1-9.9,6.8c4.9-7.4,4.5-8.2,6.9-15.5
	S99.9,59.7,101.5,46.4z"/>
<path class="st1" d="M23.6,56.7c0,0,11,3,17.9-1.6c4.1-2.7,7.5-6.3,9.9-10.6c0,0-0.5,3.7,3.7,9.4c4.4-5.9,3.6-9.4,3.6-9.4
	s7.1,14.5,25.8,13.1c-4.8,3.8-3.2,8.1-6.5,14.8s-9.7,13.7-9.7,13.7s7.3-3.3,7.6-3.6s-1.7,5.2-1.7,5.2l8.4-3.1c0,0-2,7.2-25.3,8.7
	s-29.9-6.6-29.9-6.6s2.1,1,7.3-0.2c-0.8-2.2-2.3-6-2.2-5.7s7.8,1.7,7.8,1.7c-4-3.5-6.8-8.1-8.2-13.2C30.1,61.2,27.8,58.7,23.6,56.7z
	"/>
<circle class="st1" cx="35.8" cy="33.3" r="7.9"/>
<path class="st1" d="M35.1,47.6c-7.3,0-13.2-5.9-13.2-13.2c0-1.4,0.2-2.8,0.7-4.2c-2.9,6.7,0.2,14.4,6.9,17.3
	c6.7,2.9,14.4-0.2,17.3-6.9c0.2-0.4,0.3-0.7,0.4-1.1C45.2,44.4,40.4,47.6,35.1,47.6z"/>
<path class="st1" d="M35.1,47.6c-7.3,0-13.2-5.9-13.2-13.2c0-1.4,0.2-2.8,0.7-4.2c-2.9,6.7,0.2,14.4,6.9,17.3
	c6.7,2.9,14.4-0.2,17.3-6.9c0.2-0.4,0.3-0.7,0.4-1.1C45.2,44.4,40.4,47.6,35.1,47.6z"/>
<path class="st1" d="M76,47.6c7.3,0,13.2-5.9,13.2-13.2c0-1.4-0.2-2.8-0.7-4.2c2.9,6.7-0.2,14.4-6.9,17.3s-14.4-0.2-17.3-6.9
	c-0.2-0.4-0.3-0.7-0.4-1.1C66,44.4,70.7,47.6,76,47.6z"/>
<circle class="st1" cx="74.8" cy="33.3" r="7.9"/>
</svg>
